\relax 
\providecommand*\new@tpo@label[2]{}
\newlabel{code:hw3-q1}{{1}{1}}
\newlabel{cref@code:hw3-q1}{{[listing][1][]1}{1}}
\@writefile{lol}{\contentsline {lstlisting}{\numberline {1}Given C code for HW3-Q1 and added annotations for Q1a and Q1b}{1}}
\newlabel{code:hw3-q3}{{2}{3}}
\newlabel{cref@code:hw3-q3}{{[listing][2][]2}{3}}
\@writefile{lol}{\contentsline {lstlisting}{\numberline {2}\texttt  {produce()} and \texttt  {consume()} functions for the \texttt  {bounded\_buffer}}{3}}
\@writefile{lof}{\contentsline {figure}{\numberline {1}{\ignorespaces Sequence in tabular form with arrows from V(si) to P(si)}}{5}}
\newlabel{f:hw3-q4-tabular}{{1}{5}}
\newlabel{cref@f:hw3-q4-tabular}{{[figure][1][]1}{5}}
