\relax 
\providecommand*\new@tpo@label[2]{}
\newlabel{code:hw1-q1}{{1}{1}}
\newlabel{cref@code:hw1-q1}{{[listing][1][]1}{1}}
\@writefile{lol}{\contentsline {lstlisting}{\numberline {1}Given C code for HW1-Q1}{1}}
\@writefile{lof}{\contentsline {figure}{\numberline {1}{\ignorespaces Output of HW1-Q1}}{1}}
\newlabel{f:hw1-q1}{{1}{1}}
\newlabel{cref@f:hw1-q1}{{[figure][1][]1}{1}}
\@writefile{lof}{\contentsline {figure}{\numberline {2}{\ignorespaces Process Space-Time Diagram for HW1-Q1}}{2}}
\newlabel{f:hw1-q1-diagram}{{2}{2}}
\newlabel{cref@f:hw1-q1-diagram}{{[figure][2][]2}{2}}
\newlabel{code:hw1-q2}{{2}{2}}
\newlabel{cref@code:hw1-q2}{{[listing][2][]2}{2}}
\@writefile{lol}{\contentsline {lstlisting}{\numberline {2}\texttt  {shell\_InheePark\_405.c}}{2}}
\@writefile{lof}{\contentsline {figure}{\numberline {3}{\ignorespaces Screenshot from Linux VM by executing a set of commands inside a simple shell}}{5}}
\newlabel{f:hw1-q2-output}{{3}{5}}
\newlabel{cref@f:hw1-q2-output}{{[figure][3][]3}{5}}
\@writefile{lof}{\contentsline {figure}{\numberline {4}{\ignorespaces PIDs and PPIDs of the two \texttt  {sleep 400} commands}}{6}}
\newlabel{f:hw1-q2-output}{{4}{6}}
\newlabel{cref@f:hw1-q2-output}{{[figure][4][]4}{6}}
