\relax 
\providecommand*\new@tpo@label[2]{}
\@writefile{lot}{\contentsline {table}{\numberline {1}{\ignorespaces Page Table}}{3}}
\newlabel{t1}{{1}{3}}
\newlabel{cref@t1}{{[table][1][]1}{3}}
\newlabel{eq}{{1}{4}}
\newlabel{cref@eq}{{[equation][1][]1}{4}}
\@writefile{lot}{\contentsline {table}{\numberline {2}{\ignorespaces Address Conversion Table}}{4}}
\newlabel{t2}{{2}{4}}
\newlabel{cref@t2}{{[table][2][]2}{4}}
\newlabel{code:hw3-q1}{{1}{5}}
\newlabel{cref@code:hw3-q1}{{[listing][1][]1}{5}}
\@writefile{lol}{\contentsline {lstlisting}{\numberline {1}Logical Address Translator}{5}}
