\relax 
\providecommand*\new@tpo@label[2]{}
\@writefile{lof}{\contentsline {figure}{\numberline {1}{\ignorespaces The space-time diagram for the \cref  {code:hw2-q1}}}{1}}
\newlabel{f:hw2-q1-diagram}{{1}{1}}
\newlabel{cref@f:hw2-q1-diagram}{{[figure][1][]1}{1}}
\newlabel{code:hw2-q1}{{1}{2}}
\newlabel{cref@code:hw2-q1}{{[listing][1][]1}{2}}
\@writefile{lol}{\contentsline {lstlisting}{\numberline {1}\texttt  {HW2\_Q1.c}}{2}}
\@writefile{lof}{\contentsline {figure}{\numberline {2}{\ignorespaces Output for the execution of the \cref  {code:hw2-q1}}}{2}}
\newlabel{f:hw2-q1}{{2}{2}}
\newlabel{cref@f:hw2-q1}{{[figure][2][]2}{2}}
\@writefile{lof}{\contentsline {figure}{\numberline {3}{\ignorespaces Screenshot of Sudoku Validation Results}}{3}}
\newlabel{f:hw2-q2}{{3}{3}}
\newlabel{cref@f:hw2-q2}{{[figure][3][]3}{3}}
\newlabel{code:hw2-q2}{{2}{5}}
\newlabel{cref@code:hw2-q2}{{[listing][2][]2}{5}}
\@writefile{lol}{\contentsline {lstlisting}{\numberline {2}Thread version of Sudoku \texttt  {sudoku\_InheePark\_405.c}}{5}}
